{
    "APACHE_SERVER_NAME": {
        "name": "APACHE_SERVER_NAME",
        "description": "The Apache server name.",
        "value": "https://phase2.researchit.illinois.edu:443",
        "secret": false
    },
    "APP_ENV":  {
        "name": "APP_ENV",
        "description": "Application environment.",
        "value": "prod",
        "secret": false
    },
    "BLACKFIRE_SERVER_ID":  {
        "name": "BLACKFIRE_SERVER_ID",
        "description": "Not currently used but required.",
        "value": "0c38ce0e-f6b0-43d3-a8f2-d14011b2b146",
        "secret": false
    },
    "BLACKFIRE_SERVER_TOKEN":  {
        "name": "BLACKFIRE_SERVER_TOKEN",
        "description": "Not currently used but required.",
        "value": "88ca3d1a09854d482631668f7e0586d487a2be85db7cad6afe3623a3840ebf91",
        "secret": true
    }
}